%YAML 1.1
%TAG !u! tag:unity3d.com,2011:
--- !u!74 &7400000
AnimationClip:
  m_ObjectHideFlags: 0
  m_CorrespondingSourceObject: {fileID: 0}
  m_PrefabInstance: {fileID: 0}
  m_PrefabAsset: {fileID: 0}
  m_Name: Bitting
  serializedVersion: 6
  m_Legacy: 0
  m_Compressed: 0
  m_UseHighQualityCurve: 1
  m_RotationCurves: []
  m_CompressedRotationCurves: []
  m_EulerCurves: []
  m_PositionCurves: []
  m_ScaleCurves: []
  m_FloatCurves: []
  m_PPtrCurves:
  - curve:
    - time: 0
      value: {fileID: 21300000, guid: 252017ab78fd4734396642889718c5c2, type: 3}
    - time: 0.05
      value: {fileID: 21300000, guid: 67e70f55b9a9df2489d127ff1aa03368, type: 3}
    - time: 0.1
      value: {fileID: 21300000, guid: 9a8a56bb661c393469d3039be7534bca, type: 3}
    - time: 0.15
      value: {fileID: 21300000, guid: 889a63349fff0b54aa45cbc2d32d466f, type: 3}
    - time: 0.2
      value: {fileID: 21300000, guid: a8373377795ca5f4f9ecde79d61ad45e, type: 3}
    - time: 0.25
      value: {fileID: 21300000, guid: 9ab7f7ad84524194794c5f0d15604f2c, type: 3}
    attribute: m_Sprite
    path: 
    classID: 212
    script: {fileID: 0}
  m_SampleRate: 20
  m_WrapMode: 0
  m_Bounds:
    m_Center: {x: 0, y: 0, z: 0}
    m_Extent: {x: 0, y: 0, z: 0}
  m_ClipBindingConstant:
    genericBindings:
    - serializedVersion: 2
      path: 0
      attribute: 0
      script: {fileID: 0}
      typeID: 212
      customType: 23
      isPPtrCurve: 1
    pptrCurveMapping:
    - {fileID: 21300000, guid: 252017ab78fd4734396642889718c5c2, type: 3}
    - {fileID: 21300000, guid: 67e70f55b9a9df2489d127ff1aa03368, type: 3}
    - {fileID: 21300000, guid: 9a8a56bb661c393469d3039be7534bca, type: 3}
    - {fileID: 21300000, guid: 889a63349fff0b54aa45cbc2d32d466f, type: 3}
    - {fileID: 21300000, guid: a8373377795ca5f4f9ecde79d61ad45e, type: 3}
    - {fileID: 21300000, guid: 9ab7f7ad84524194794c5f0d15604f2c, type: 3}
  m_AnimationClipSettings:
    serializedVersion: 2
    m_AdditiveReferencePoseClip: {fileID: 0}
    m_AdditiveReferencePoseTime: 0
    m_StartTime: 0
    m_StopTime: 0.3
    m_OrientationOffsetY: 0
    m_Level: 0
    m_CycleOffset: 0
    m_HasAdditiveReferencePose: 0
    m_LoopTime: 1
    m_LoopBlend: 0
    m_LoopBlendOrientation: 0
    m_LoopBlendPositionY: 0
    m_LoopBlendPositionXZ: 0
    m_KeepOriginalOrientation: 0
    m_KeepOriginalPositionY: 1
    m_KeepOriginalPositionXZ: 0
    m_HeightFromFeet: 0
    m_Mirror: 0
  m_EditorCurves: []
  m_EulerEditorCurves: []
  m_HasGenericRootTransform: 0
  m_HasMotionFloatCurves: 0
  m_Events:
  - time: 0.2
    functionName: SetDamage
    data: 
    objectReferenceParameter: {fileID: 0}
    floatParameter: 0
    intParameter: 0
    messageOptions: 0
