%YAML 1.1
%TAG !u! tag:unity3d.com,2011:
--- !u!74 &7400000
AnimationClip:
  m_ObjectHideFlags: 0
  m_CorrespondingSourceObject: {fileID: 0}
  m_PrefabInstance: {fileID: 0}
  m_PrefabAsset: {fileID: 0}
  m_Name: Wolking
  serializedVersion: 6
  m_Legacy: 0
  m_Compressed: 0
  m_UseHighQualityCurve: 1
  m_RotationCurves: []
  m_CompressedRotationCurves: []
  m_EulerCurves: []
  m_PositionCurves: []
  m_ScaleCurves: []
  m_FloatCurves: []
  m_PPtrCurves:
  - curve:
    - time: 0
      value: {fileID: 21300000, guid: 0dd8166f521f98b4393cd48b7f2ff45a, type: 3}
    - time: 0.083333336
      value: {fileID: 21300000, guid: e707f8bd2c33cbf4bb49413c27509b73, type: 3}
    - time: 0.16666667
      value: {fileID: 21300000, guid: e2d9fb9e736ba7d4683b4790351b7061, type: 3}
    - time: 0.25
      value: {fileID: 21300000, guid: 75d55c8e72f573e4ba8fc4dc4f524d80, type: 3}
    - time: 0.33333334
      value: {fileID: 21300000, guid: 3816c5c35269ce74f9a0b6e45632134e, type: 3}
    - time: 0.41666666
      value: {fileID: 21300000, guid: 81a5f40261a1f454aaba99cee96dde2b, type: 3}
    - time: 0.5
      value: {fileID: 21300000, guid: a28ea2727b319834a99d1364851ae8ec, type: 3}
    - time: 0.5833333
      value: {fileID: 21300000, guid: 62b98973b52d4e64ab8334efe71d6b28, type: 3}
    attribute: m_Sprite
    path: 
    classID: 212
    script: {fileID: 0}
  m_SampleRate: 12
  m_WrapMode: 0
  m_Bounds:
    m_Center: {x: 0, y: 0, z: 0}
    m_Extent: {x: 0, y: 0, z: 0}
  m_ClipBindingConstant:
    genericBindings:
    - serializedVersion: 2
      path: 0
      attribute: 0
      script: {fileID: 0}
      typeID: 212
      customType: 23
      isPPtrCurve: 1
    pptrCurveMapping:
    - {fileID: 21300000, guid: 0dd8166f521f98b4393cd48b7f2ff45a, type: 3}
    - {fileID: 21300000, guid: e707f8bd2c33cbf4bb49413c27509b73, type: 3}
    - {fileID: 21300000, guid: e2d9fb9e736ba7d4683b4790351b7061, type: 3}
    - {fileID: 21300000, guid: 75d55c8e72f573e4ba8fc4dc4f524d80, type: 3}
    - {fileID: 21300000, guid: 3816c5c35269ce74f9a0b6e45632134e, type: 3}
    - {fileID: 21300000, guid: 81a5f40261a1f454aaba99cee96dde2b, type: 3}
    - {fileID: 21300000, guid: a28ea2727b319834a99d1364851ae8ec, type: 3}
    - {fileID: 21300000, guid: 62b98973b52d4e64ab8334efe71d6b28, type: 3}
  m_AnimationClipSettings:
    serializedVersion: 2
    m_AdditiveReferencePoseClip: {fileID: 0}
    m_AdditiveReferencePoseTime: 0
    m_StartTime: 0
    m_StopTime: 0.6666666
    m_OrientationOffsetY: 0
    m_Level: 0
    m_CycleOffset: 0
    m_HasAdditiveReferencePose: 0
    m_LoopTime: 1
    m_LoopBlend: 0
    m_LoopBlendOrientation: 0
    m_LoopBlendPositionY: 0
    m_LoopBlendPositionXZ: 0
    m_KeepOriginalOrientation: 0
    m_KeepOriginalPositionY: 1
    m_KeepOriginalPositionXZ: 0
    m_HeightFromFeet: 0
    m_Mirror: 0
  m_EditorCurves: []
  m_EulerEditorCurves: []
  m_HasGenericRootTransform: 0
  m_HasMotionFloatCurves: 0
  m_Events:
  - time: 0
    functionName: SetDamage
    data: 
    objectReferenceParameter: {fileID: 0}
    floatParameter: 0
    intParameter: 0
    messageOptions: 0
